\relax 
\citation{Herrmann2018}
\citation{trafficStats}
\citation{Herrmann2018}
\@writefile{toc}{\contentsline {section}{\numberline {1}Motivation}{3}{}\protected@file@percent }
\@writefile{toc}{\contentsline {subsection}{\numberline {1.1}State of the art}{3}{}\protected@file@percent }
\@writefile{toc}{\contentsline {subsection}{\numberline {1.2}Problem Statement}{4}{}\protected@file@percent }
\@writefile{toc}{\contentsline {subsection}{\numberline {1.3}Research question}{4}{}\protected@file@percent }
\@writefile{toc}{\contentsline {subsection}{\numberline {1.4}Evaluation}{4}{}\protected@file@percent }
\@writefile{toc}{\contentsline {section}{\numberline {2}Outline}{5}{}\protected@file@percent }
\citation{SAMROSWIKI}
\citation{AbangLZU}
\citation{nsa31}
\citation{mlsdpk}
\bibstyle{plain}
\bibdata{M335}
\bibcite{AbangLZU}{1}
\@writefile{toc}{\contentsline {section}{\numberline {3}Time plan}{6}{}\protected@file@percent }
\gtt@chartextrasize{0}{154.12256pt}
\@writefile{toc}{\contentsline {section}{\numberline {4}Literature review}{6}{}\protected@file@percent }
\@writefile{toc}{\contentsline {section}{\numberline {5}Optional additions}{6}{}\protected@file@percent }
\@writefile{toc}{\contentsline {subsection}{\numberline {5.1}Trajectory output}{6}{}\protected@file@percent }
\@writefile{toc}{\contentsline {subsection}{\numberline {5.2}Lane detection with additional deep learning}{6}{}\protected@file@percent }
\@writefile{toc}{\contentsline {subsection}{\numberline {5.3}Lane detection with LIDAR}{6}{}\protected@file@percent }
\bibcite{Herrmann2018}{2}
\bibcite{mlsdpk}{3}
\bibcite{SAMROSWIKI}{4}
\bibcite{nsa31}{5}
\bibcite{trafficStats}{6}
\gdef \@abspage@last{7}
